,rs9821337_rs6762826,rs7804722_rs17164894,rs1776897_rs2744977,rs514779_rs10962274,rs6904669_rs1960278,rs1466947_rs17070997
rs9821337_rs6762826,TRUE,TRUE,TRUE,TRUE,TRUE,TRUE
rs7804722_rs17164894,TRUE,TRUE,TRUE,TRUE,TRUE,TRUE
rs1776897_rs2744977,TRUE,TRUE,TRUE,TRUE,TRUE,TRUE
rs514779_rs10962274,TRUE,TRUE,TRUE,TRUE,TRUE,TRUE
rs6904669_rs1960278,TRUE,TRUE,TRUE,TRUE,TRUE,TRUE
rs1466947_rs17070997,TRUE,TRUE,TRUE,TRUE,TRUE,TRUE
