diplo,avg_height,n,SNP1,SNP2,snp_pair,CHR,BP1
-1-1-+-1-1-,168.420249845774,3345,rs726838,rs6762826,rs726838_rs6762826,3,142555356
-1-1-+-1-2-,168.96873747495,515,rs726838,rs6762826,rs726838_rs6762826_dup,3,142555356
-1-1-+-2-1-,169.740821986889,2052,rs726838,rs6762826,rs726838_rs6762826_dup,3,142555356
-1-2-+-1-1-,169.011487758945,550,rs726838,rs6762826,rs726838_rs6762826_dup,3,142555356
-1-2-+-1-2-,171.545930232558,86,rs726838,rs6762826,rs726838_rs6762826_dup,3,142555356
-1-2-+-2-1-,170.932817337461,336,rs726838,rs6762826,rs726838_rs6762826_dup,3,142555356
-1-2-+-2-2-,177.5,2,rs726838,rs6762826,rs726838_rs6762826_dup,3,142555356
-2-1-+-1-1-,169.043085106383,2127,rs726838,rs6762826,rs726838_rs6762826_dup,3,142555356
-2-1-+-1-2-,170.157099697885,338,rs726838,rs6762826,rs726838_rs6762826_dup,3,142555356
-2-1-+-2-1-,170.012202852615,1290,rs726838,rs6762826,rs726838_rs6762826_dup,3,142555356
-2-1-+-2-2-,167.125,12,rs726838,rs6762826,rs726838_rs6762826_dup,3,142555356
-2-2-+-1-2-,162.6,3,rs726838,rs6762826,rs726838_rs6762826_dup,3,142555356
-2-2-+-2-1-,170.61875,16,rs726838,rs6762826,rs726838_rs6762826_dup,3,142555356
-1-1-+-1-1-,168.420249845774,3345,rs13095453,rs6762826,rs13095453_rs6762826,3,142557652
-1-1-+-1-2-,168.96873747495,515,rs13095453,rs6762826,rs13095453_rs6762826_dup,3,142557652
-1-1-+-2-1-,169.740821986889,2052,rs13095453,rs6762826,rs13095453_rs6762826_dup,3,142557652
-1-2-+-1-1-,169.011487758945,550,rs13095453,rs6762826,rs13095453_rs6762826_dup,3,142557652
-1-2-+-1-2-,171.545930232558,86,rs13095453,rs6762826,rs13095453_rs6762826_dup,3,142557652
-1-2-+-2-1-,170.932817337461,336,rs13095453,rs6762826,rs13095453_rs6762826_dup,3,142557652
-1-2-+-2-2-,177.5,2,rs13095453,rs6762826,rs13095453_rs6762826_dup,3,142557652
-2-1-+-1-1-,169.043085106383,2127,rs13095453,rs6762826,rs13095453_rs6762826_dup,3,142557652
-2-1-+-1-2-,170.157099697885,338,rs13095453,rs6762826,rs13095453_rs6762826_dup,3,142557652
-2-1-+-2-1-,170.012202852615,1290,rs13095453,rs6762826,rs13095453_rs6762826_dup,3,142557652
-2-1-+-2-2-,167.125,12,rs13095453,rs6762826,rs13095453_rs6762826_dup,3,142557652
-2-2-+-1-2-,162.6,3,rs13095453,rs6762826,rs13095453_rs6762826_dup,3,142557652
-2-2-+-2-1-,170.61875,16,rs13095453,rs6762826,rs13095453_rs6762826_dup,3,142557652
-1-1-+-1-1-,168.410102437301,2919,rs9821337,rs6762826,rs9821337_rs6762826,3,142578875
-1-1-+-1-2-,168.988612836439,501,rs9821337,rs6762826,rs9821337_rs6762826_dup,3,142578875
-1-1-+-2-1-,168.984649776453,2075,rs9821337,rs6762826,rs9821337_rs6762826_dup,3,142578875
-1-2-+-1-1-,168.877528089888,547,rs9821337,rs6762826,rs9821337_rs6762826_dup,3,142578875
-1-2-+-1-2-,171.601704545455,88,rs9821337,rs6762826,rs9821337_rs6762826_dup,3,142578875
-1-2-+-2-1-,170.318639053254,351,rs9821337,rs6762826,rs9821337_rs6762826_dup,3,142578875
-1-2-+-2-2-,169.45,2,rs9821337,rs6762826,rs9821337_rs6762826_dup,3,142578875
-2-1-+-1-1-,169.240158952782,2216,rs9821337,rs6762826,rs9821337_rs6762826_dup,3,142578875
-2-1-+-1-2-,170.182789317507,348,rs9821337,rs6762826,rs9821337_rs6762826_dup,3,142578875
-2-1-+-2-1-,169.986869340233,1578,rs9821337,rs6762826,rs9821337_rs6762826_dup,3,142578875
-2-1-+-2-2-,166.2,3,rs9821337,rs6762826,rs9821337_rs6762826_dup,3,142578875
-2-2-+-1-2-,155.9,1,rs9821337,rs6762826,rs9821337_rs6762826_dup,3,142578875
-2-2-+-2-1-,169.957142857143,7,rs9821337,rs6762826,rs9821337_rs6762826_dup,3,142578875
-1-1-+-1-1-,168.817796882533,6424,rs1776897,rs2744977,rs1776897_rs2744977,6,34302989
-1-1-+-1-2-,170.256018957346,1087,rs1776897,rs2744977,rs1776897_rs2744977_dup,6,34302989
-1-1-+-2-1-,169.646789883268,527,rs1776897,rs2744977,rs1776897_rs2744977_dup,6,34302989
-1-1-+-2-2-,170.391634980989,268,rs1776897,rs2744977,rs1776897_rs2744977_dup,6,34302989
-1-2-+-1-1-,168.345903165736,1110,rs1776897,rs2744977,rs1776897_rs2744977_dup,6,34302989
-1-2-+-1-2-,169.920652173913,189,rs1776897,rs2744977,rs1776897_rs2744977_dup,6,34302989
-1-2-+-2-2-,170.022580645161,33,rs1776897,rs2744977,rs1776897_rs2744977_dup,6,34302989
-2-1-+-1-1-,169.621339285714,573,rs1776897,rs2744977,rs1776897_rs2744977_dup,6,34302989
-2-1-+-2-1-,171.966666666667,50,rs1776897,rs2744977,rs1776897_rs2744977_dup,6,34302989
-2-1-+-2-2-,169.241176470588,17,rs1776897,rs2744977,rs1776897_rs2744977_dup,6,34302989
-2-2-+-1-1-,170.327985074627,272,rs1776897,rs2744977,rs1776897_rs2744977_dup,6,34302989
-2-2-+-1-2-,171.8,32,rs1776897,rs2744977,rs1776897_rs2744977_dup,6,34302989
-2-2-+-2-1-,176.261538461538,13,rs1776897,rs2744977,rs1776897_rs2744977_dup,6,34302989
-2-2-+-2-2-,167.8,13,rs1776897,rs2744977,rs1776897_rs2744977_dup,6,34302989
-1-1-+-1-1-,168.701748773726,4818,rs42046,rs17164894,rs42046_rs17164894,7,92090139
-1-1-+-1-2-,168.68724137931,299,rs42046,rs17164894,rs42046_rs17164894_dup,7,92090139
-1-1-+-2-1-,169.379496402878,1867,rs42046,rs17164894,rs42046_rs17164894_dup,7,92090139
-1-1-+-2-2-,170.969047619048,301,rs42046,rs17164894,rs42046_rs17164894_dup,7,92090139
-1-2-+-1-1-,169.731313131313,303,rs42046,rs17164894,rs42046_rs17164894_dup,7,92090139
-1-2-+-1-2-,171.881578947368,20,rs42046,rs17164894,rs42046_rs17164894_dup,7,92090139
-1-2-+-2-2-,167.936363636364,11,rs42046,rs17164894,rs42046_rs17164894_dup,7,92090139
-2-1-+-1-1-,169.424254742547,1916,rs42046,rs17164894,rs42046_rs17164894_dup,7,92090139
-2-1-+-2-1-,169.893606321839,717,rs42046,rs17164894,rs42046_rs17164894_dup,7,92090139
-2-1-+-2-2-,171.295,52,rs42046,rs17164894,rs42046_rs17164894_dup,7,92090139
-2-2-+-1-1-,170.585763888889,296,rs42046,rs17164894,rs42046_rs17164894_dup,7,92090139
-2-2-+-1-2-,169.888888888889,9,rs42046,rs17164894,rs42046_rs17164894_dup,7,92090139
-2-2-+-2-1-,171.762711864407,59,rs42046,rs17164894,rs42046_rs17164894_dup,7,92090139
-2-2-+-2-2-,176.3,5,rs42046,rs17164894,rs42046_rs17164894_dup,7,92090139
-1-1-+-1-1-,168.701748773726,4818,rs11767704,rs17164894,rs11767704_rs17164894,7,92094311
-1-1-+-1-2-,168.68724137931,299,rs11767704,rs17164894,rs11767704_rs17164894_dup,7,92094311
-1-1-+-2-1-,169.379496402878,1867,rs11767704,rs17164894,rs11767704_rs17164894_dup,7,92094311
-1-1-+-2-2-,170.969047619048,301,rs11767704,rs17164894,rs11767704_rs17164894_dup,7,92094311
-1-2-+-1-1-,169.731313131313,303,rs11767704,rs17164894,rs11767704_rs17164894_dup,7,92094311
-1-2-+-1-2-,171.881578947368,20,rs11767704,rs17164894,rs11767704_rs17164894_dup,7,92094311
-1-2-+-2-2-,167.936363636364,11,rs11767704,rs17164894,rs11767704_rs17164894_dup,7,92094311
-2-1-+-1-1-,169.424254742547,1916,rs11767704,rs17164894,rs11767704_rs17164894_dup,7,92094311
-2-1-+-2-1-,169.893606321839,717,rs11767704,rs17164894,rs11767704_rs17164894_dup,7,92094311
-2-1-+-2-2-,171.295,52,rs11767704,rs17164894,rs11767704_rs17164894_dup,7,92094311
-2-2-+-1-1-,170.585763888889,296,rs11767704,rs17164894,rs11767704_rs17164894_dup,7,92094311
-2-2-+-1-2-,169.888888888889,9,rs11767704,rs17164894,rs11767704_rs17164894_dup,7,92094311
-2-2-+-2-1-,171.762711864407,59,rs11767704,rs17164894,rs11767704_rs17164894_dup,7,92094311
-2-2-+-2-2-,176.3,5,rs11767704,rs17164894,rs11767704_rs17164894_dup,7,92094311
-1-1-+-1-1-,168.701748773726,4818,rs11771637,rs17164894,rs11771637_rs17164894,7,92098097
-1-1-+-1-2-,168.68724137931,299,rs11771637,rs17164894,rs11771637_rs17164894_dup,7,92098097
-1-1-+-2-1-,169.379496402878,1867,rs11771637,rs17164894,rs11771637_rs17164894_dup,7,92098097
-1-1-+-2-2-,170.969047619048,301,rs11771637,rs17164894,rs11771637_rs17164894_dup,7,92098097
-1-2-+-1-1-,169.731313131313,303,rs11771637,rs17164894,rs11771637_rs17164894_dup,7,92098097
-1-2-+-1-2-,171.881578947368,20,rs11771637,rs17164894,rs11771637_rs17164894_dup,7,92098097
-1-2-+-2-2-,167.936363636364,11,rs11771637,rs17164894,rs11771637_rs17164894_dup,7,92098097
-2-1-+-1-1-,169.424254742547,1916,rs11771637,rs17164894,rs11771637_rs17164894_dup,7,92098097
-2-1-+-2-1-,169.893606321839,717,rs11771637,rs17164894,rs11771637_rs17164894_dup,7,92098097
-2-1-+-2-2-,171.295,52,rs11771637,rs17164894,rs11771637_rs17164894_dup,7,92098097
-2-2-+-1-1-,170.585763888889,296,rs11771637,rs17164894,rs11771637_rs17164894_dup,7,92098097
-2-2-+-1-2-,169.888888888889,9,rs11771637,rs17164894,rs11771637_rs17164894_dup,7,92098097
-2-2-+-2-1-,171.762711864407,59,rs11771637,rs17164894,rs11771637_rs17164894_dup,7,92098097
-2-2-+-2-2-,176.3,5,rs11771637,rs17164894,rs11771637_rs17164894_dup,7,92098097
-1-1-+-1-1-,168.596894409938,6299,rs17688839,rs17164894,rs17688839_rs17164894,7,92101286
-1-1-+-1-2-,169.314351851852,444,rs17688839,rs17164894,rs17688839_rs17164894_dup,7,92101286
-1-1-+-2-1-,169.710093530787,1329,rs17688839,rs17164894,rs17688839_rs17164894_dup,7,92101286
-1-1-+-2-2-,171.187431693989,189,rs17688839,rs17164894,rs17688839_rs17164894_dup,7,92101286
-1-2-+-1-1-,169.546261682243,437,rs17688839,rs17164894,rs17688839_rs17164894_dup,7,92101286
-1-2-+-1-2-,170.701724137931,30,rs17688839,rs17164894,rs17688839_rs17164894_dup,7,92101286
-1-2-+-2-2-,173.116666666667,6,rs17688839,rs17164894,rs17688839_rs17164894_dup,7,92101286
-2-1-+-1-1-,169.110783553142,1336,rs17688839,rs17164894,rs17688839_rs17164894_dup,7,92101286
-2-1-+-2-1-,170.123880597015,275,rs17688839,rs17164894,rs17688839_rs17164894_dup,7,92101286
-2-1-+-2-2-,173.774,25,rs17688839,rs17164894,rs17688839_rs17164894_dup,7,92101286
-2-2-+-1-1-,170.50597826087,189,rs17688839,rs17164894,rs17688839_rs17164894_dup,7,92101286
-2-2-+-1-2-,168.614285714286,7,rs17688839,rs17164894,rs17688839_rs17164894_dup,7,92101286
-2-2-+-2-1-,165.030769230769,13,rs17688839,rs17164894,rs17688839_rs17164894_dup,7,92101286
-2-2-+-2-2-,167,1,rs17688839,rs17164894,rs17688839_rs17164894_dup,7,92101286
-1-1-+-1-1-,168.705330490405,4819,rs2282979,rs17164894,rs2282979_rs17164894,7,92102929
-1-1-+-1-2-,169.780208333333,297,rs2282979,rs17164894,rs2282979_rs17164894_dup,7,92102929
-1-1-+-2-1-,169.27938028169,1842,rs2282979,rs17164894,rs2282979_rs17164894_dup,7,92102929
-1-1-+-2-2-,170.714583333333,293,rs2282979,rs17164894,rs2282979_rs17164894_dup,7,92102929
-1-2-+-1-1-,168.671571906355,305,rs2282979,rs17164894,rs2282979_rs17164894_dup,7,92102929
-1-2-+-1-2-,171.881578947368,20,rs2282979,rs17164894,rs2282979_rs17164894_dup,7,92102929
-1-2-+-2-2-,173.25,10,rs2282979,rs17164894,rs2282979_rs17164894_dup,7,92102929
-2-1-+-1-1-,169.527171017581,1941,rs2282979,rs17164894,rs2282979_rs17164894_dup,7,92102929
-2-1-+-2-1-,169.869324712644,717,rs2282979,rs17164894,rs2282979_rs17164894_dup,7,92102929
-2-1-+-2-2-,170.634545454545,56,rs2282979,rs17164894,rs2282979_rs17164894_dup,7,92102929
-2-2-+-1-1-,170.842857142857,304,rs2282979,rs17164894,rs2282979_rs17164894_dup,7,92102929
-2-2-+-1-2-,164.38,10,rs2282979,rs17164894,rs2282979_rs17164894_dup,7,92102929
-2-2-+-2-1-,172.478703703704,55,rs2282979,rs17164894,rs2282979_rs17164894_dup,7,92102929
-2-2-+-2-2-,176.3,5,rs2282979,rs17164894,rs2282979_rs17164894_dup,7,92102929
-1-1-+-1-1-,168.698311244121,4806,rs11765954,rs17164894,rs11765954_rs17164894,7,92118631
-1-1-+-1-2-,168.62439862543,297,rs11765954,rs17164894,rs11765954_rs17164894_dup,7,92118631
-1-1-+-2-1-,169.348794167134,1854,rs11765954,rs17164894,rs11765954_rs17164894_dup,7,92118631
-1-1-+-2-2-,170.871043771044,305,rs11765954,rs17164894,rs11765954_rs17164894_dup,7,92118631
-1-2-+-1-1-,169.762837837838,305,rs11765954,rs17164894,rs11765954_rs17164894_dup,7,92118631
-1-2-+-1-2-,171.881578947368,20,rs11765954,rs17164894,rs11765954_rs17164894_dup,7,92118631
-1-2-+-2-2-,169.81,10,rs11765954,rs17164894,rs11765954_rs17164894_dup,7,92118631
-2-1-+-1-1-,169.493326214629,1934,rs11765954,rs17164894,rs11765954_rs17164894_dup,7,92118631
-2-1-+-2-1-,169.815127840909,725,rs11765954,rs17164894,rs11765954_rs17164894_dup,7,92118631
-2-1-+-2-2-,170.479245283019,55,rs11765954,rs17164894,rs11765954_rs17164894_dup,7,92118631
-2-2-+-1-1-,170.718947368421,292,rs11765954,rs17164894,rs11765954_rs17164894_dup,7,92118631
-2-2-+-1-2-,167.82,10,rs11765954,rs17164894,rs11765954_rs17164894_dup,7,92118631
-2-2-+-2-1-,172.559821428571,56,rs11765954,rs17164894,rs11765954_rs17164894_dup,7,92118631
-2-2-+-2-2-,176.3,5,rs11765954,rs17164894,rs11765954_rs17164894_dup,7,92118631
-1-1-+-1-1-,168.698311244121,4806,rs6948097,rs17164894,rs6948097_rs17164894,7,92119889
-1-1-+-1-2-,168.62439862543,297,rs6948097,rs17164894,rs6948097_rs17164894_dup,7,92119889
-1-1-+-2-1-,169.348794167134,1854,rs6948097,rs17164894,rs6948097_rs17164894_dup,7,92119889
-1-1-+-2-2-,170.871043771044,305,rs6948097,rs17164894,rs6948097_rs17164894_dup,7,92119889
-1-2-+-1-1-,169.762837837838,305,rs6948097,rs17164894,rs6948097_rs17164894_dup,7,92119889
-1-2-+-1-2-,171.881578947368,20,rs6948097,rs17164894,rs6948097_rs17164894_dup,7,92119889
-1-2-+-2-2-,169.81,10,rs6948097,rs17164894,rs6948097_rs17164894_dup,7,92119889
-2-1-+-1-1-,169.493326214629,1934,rs6948097,rs17164894,rs6948097_rs17164894_dup,7,92119889
-2-1-+-2-1-,169.815127840909,725,rs6948097,rs17164894,rs6948097_rs17164894_dup,7,92119889
-2-1-+-2-2-,170.479245283019,55,rs6948097,rs17164894,rs6948097_rs17164894_dup,7,92119889
-2-2-+-1-1-,170.718947368421,292,rs6948097,rs17164894,rs6948097_rs17164894_dup,7,92119889
-2-2-+-1-2-,167.82,10,rs6948097,rs17164894,rs6948097_rs17164894_dup,7,92119889
-2-2-+-2-1-,172.559821428571,56,rs6948097,rs17164894,rs6948097_rs17164894_dup,7,92119889
-2-2-+-2-2-,176.3,5,rs6948097,rs17164894,rs6948097_rs17164894_dup,7,92119889
-1-1-+-1-1-,168.698311244121,4806,rs6954221,rs17164894,rs6954221_rs17164894,7,92121198
-1-1-+-1-2-,168.62439862543,297,rs6954221,rs17164894,rs6954221_rs17164894_dup,7,92121198
-1-1-+-2-1-,169.348794167134,1854,rs6954221,rs17164894,rs6954221_rs17164894_dup,7,92121198
-1-1-+-2-2-,170.871043771044,305,rs6954221,rs17164894,rs6954221_rs17164894_dup,7,92121198
-1-2-+-1-1-,169.762837837838,305,rs6954221,rs17164894,rs6954221_rs17164894_dup,7,92121198
-1-2-+-1-2-,171.881578947368,20,rs6954221,rs17164894,rs6954221_rs17164894_dup,7,92121198
-1-2-+-2-2-,169.81,10,rs6954221,rs17164894,rs6954221_rs17164894_dup,7,92121198
-2-1-+-1-1-,169.493326214629,1934,rs6954221,rs17164894,rs6954221_rs17164894_dup,7,92121198
-2-1-+-2-1-,169.815127840909,725,rs6954221,rs17164894,rs6954221_rs17164894_dup,7,92121198
-2-1-+-2-2-,170.479245283019,55,rs6954221,rs17164894,rs6954221_rs17164894_dup,7,92121198
-2-2-+-1-1-,170.718947368421,292,rs6954221,rs17164894,rs6954221_rs17164894_dup,7,92121198
-2-2-+-1-2-,167.82,10,rs6954221,rs17164894,rs6954221_rs17164894_dup,7,92121198
-2-2-+-2-1-,172.559821428571,56,rs6954221,rs17164894,rs6954221_rs17164894_dup,7,92121198
-2-2-+-2-2-,176.3,5,rs6954221,rs17164894,rs6954221_rs17164894_dup,7,92121198
-1-1-+-1-1-,168.703311258278,4810,rs7804722,rs17164894,rs7804722_rs17164894,7,92126042
-1-1-+-1-2-,169.327137546468,276,rs7804722,rs17164894,rs7804722_rs17164894_dup,7,92126042
-1-1-+-2-1-,169.103869882221,1843,rs7804722,rs17164894,rs7804722_rs17164894_dup,7,92126042
-1-1-+-2-2-,170.169655172414,298,rs7804722,rs17164894,rs7804722_rs17164894_dup,7,92126042
-1-2-+-1-1-,169.089622641509,326,rs7804722,rs17164894,rs7804722_rs17164894_dup,7,92126042
-1-2-+-1-2-,171.881578947368,20,rs7804722,rs17164894,rs7804722_rs17164894_dup,7,92126042
-1-2-+-2-2-,167.313333333333,15,rs7804722,rs17164894,rs7804722_rs17164894_dup,7,92126042
-2-1-+-1-1-,169.711985018727,1940,rs7804722,rs17164894,rs7804722_rs17164894_dup,7,92126042
-2-1-+-2-1-,169.843314366999,724,rs7804722,rs17164894,rs7804722_rs17164894_dup,7,92126042
-2-1-+-2-2-,170.489795918367,51,rs7804722,rs17164894,rs7804722_rs17164894_dup,7,92126042
-2-2-+-1-1-,171.419178082192,299,rs7804722,rs17164894,rs7804722_rs17164894_dup,7,92126042
-2-2-+-1-2-,173.32,5,rs7804722,rs17164894,rs7804722_rs17164894_dup,7,92126042
-2-2-+-2-1-,172.4125,60,rs7804722,rs17164894,rs7804722_rs17164894_dup,7,92126042
-2-2-+-2-2-,176.3,5,rs7804722,rs17164894,rs7804722_rs17164894_dup,7,92126042
-1-1-+-1-1-,169.352982750359,8613,rs514779,rs10962274,rs514779_rs10962274,9,1588693
-1-1-+-1-2-,167.705175038052,674,rs514779,rs10962274,rs514779_rs10962274_dup,9,1588693
-1-1-+-2-1-,169.53125,195,rs514779,rs10962274,rs514779_rs10962274_dup,9,1588693
-1-1-+-2-2-,167.072222222222,54,rs514779,rs10962274,rs514779_rs10962274_dup,9,1588693
-1-2-+-1-1-,168.169690576653,727,rs514779,rs10962274,rs514779_rs10962274_dup,9,1588693
-1-2-+-1-2-,167.184615384615,41,rs514779,rs10962274,rs514779_rs10962274_dup,9,1588693
-1-2-+-2-2-,168.004166666667,24,rs514779,rs10962274,rs514779_rs10962274_dup,9,1588693
-2-1-+-1-1-,168.974008810573,235,rs514779,rs10962274,rs514779_rs10962274_dup,9,1588693
-2-1-+-2-1-,165.975,4,rs514779,rs10962274,rs514779_rs10962274_dup,9,1588693
-2-1-+-2-2-,153.7,1,rs514779,rs10962274,rs514779_rs10962274_dup,9,1588693
-2-2-+-1-1-,164.662745098039,54,rs514779,rs10962274,rs514779_rs10962274_dup,9,1588693
-2-2-+-1-2-,170.2625,8,rs514779,rs10962274,rs514779_rs10962274_dup,9,1588693
-1-1-+-1-1-,169.352982750359,8613,rs1853417,rs10962274,rs1853417_rs10962274,9,1588840
-1-1-+-1-2-,167.705175038052,674,rs1853417,rs10962274,rs1853417_rs10962274_dup,9,1588840
-1-1-+-2-1-,169.53125,195,rs1853417,rs10962274,rs1853417_rs10962274_dup,9,1588840
-1-1-+-2-2-,167.072222222222,54,rs1853417,rs10962274,rs1853417_rs10962274_dup,9,1588840
-1-2-+-1-1-,168.169690576653,727,rs1853417,rs10962274,rs1853417_rs10962274_dup,9,1588840
-1-2-+-1-2-,167.184615384615,41,rs1853417,rs10962274,rs1853417_rs10962274_dup,9,1588840
-1-2-+-2-2-,168.004166666667,24,rs1853417,rs10962274,rs1853417_rs10962274_dup,9,1588840
-2-1-+-1-1-,168.974008810573,235,rs1853417,rs10962274,rs1853417_rs10962274_dup,9,1588840
-2-1-+-2-1-,165.975,4,rs1853417,rs10962274,rs1853417_rs10962274_dup,9,1588840
-2-1-+-2-2-,153.7,1,rs1853417,rs10962274,rs1853417_rs10962274_dup,9,1588840
-2-2-+-1-1-,164.662745098039,54,rs1853417,rs10962274,rs1853417_rs10962274_dup,9,1588840
-2-2-+-1-2-,170.2625,8,rs1853417,rs10962274,rs1853417_rs10962274_dup,9,1588840
