SNP1,CHR1,BP1,MAF1,NMISS1,BETA1,STAT1,P1,SNP2,CHR2,BP2,MAF2,NMISS2,BETA2,STAT2,P2,NMISS,BETA,STAT,P,NTEST,Estimate,Std..Error,t.value,P_rep,threshold,sig,metap,meta_sig,p_adj_related,threshold_adj_related,sig_adj_related,metap_adj,meta_sig_adj
rs6904669,6,31300775,0.4125,10360,0.09,0.912,0.362,rs1960278,6,31377853,0.4303,10351,0.453,4.667,3.09e-06,10351,-0.891,-7.46,9.32e-14,301,0.221,0.163,1.357,0.175,0.047,FALSE,0.0153125000000163,TRUE,0.4553748,0.04835708,FALSE,0.103683104237562,FALSE
rs1776897,6,34302989,0.08912,10295,0.912,5.444,5.32e-08,rs2744977,6,34671038,0.1558,10360,0.709,5.367,8.17e-08,10296,0.776,7.387,1.61e-13,81,0.374,0.144,2.602,0.0093,0.061,TRUE,4.32450000014973e-05,TRUE,0.03773145,0.0553972,TRUE,0.000711831159557325,TRUE
rs7766156,6,31357769,0.2086,10359,-0.609,-5.158,2.54e-07,rs6457401,6,31442831,0.2286,10361,-0.579,-5.052,4.46e-07,10360,-0.6,-6.984,3.04e-12,301,0.05,0.118,0.423,0.672,0.054,FALSE,0.225792000002043,FALSE,0.501602,0.06401565,FALSE,0.125802283203525,FALSE
rs2233976,6,31187973,0.106,10358,-0.813,-5.237,1.67e-07,rs12529697,6,31233386,0.07121,10331,-0.533,-2.863,0.0042,10331,-0.843,-6.758,1.47e-11,301,-0.006,0.183,-0.033,0.974,0.057,FALSE,0.474338000014318,FALSE,0.4676699,0.05533042,FALSE,0.10935756768988,FALSE
rs6927461,6,31309782,0.3158,10360,0.146,1.399,0.162,rs1960278,6,31377853,0.4303,10351,0.453,4.667,3.09e-06,10351,-0.735,-6.74,1.67e-11,301,0.021,0.142,0.149,0.881,0.042,FALSE,0.388080500014713,FALSE,0.343316,0.04546851,FALSE,0.0589329379337334,FALSE
rs12529697,6,31233386,0.07121,10331,-0.533,-2.863,0.0042,rs9501571,6,31441589,0.1508,10361,-0.689,-5.139,2.82e-07,10336,-0.768,-6.686,2.41e-11,301,-0.015,0.161,-0.096,0.924,0.051,FALSE,0.426888000022269,FALSE,0.8890478,0.05803046,FALSE,0.395202995363846,FALSE
rs7793983,7,92322975,0.08921,10357,0.795,4.728,2.3e-06,rs17164894,7,92437967,0.06558,10360,0.836,4.309,1.65e-05,10357,0.871,6.629,3.56e-11,135,0.136,0.214,0.633,0.527,0.047,FALSE,0.138864500018761,FALSE,0.2081994,0.05214354,FALSE,0.0216734950875919,TRUE
rs17688839,7,92101286,0.1741,10267,0.646,5.112,3.25e-07,rs17164894,7,92437967,0.06558,10360,0.836,4.309,1.65e-05,10267,0.717,6.615,3.91e-11,125,0.444,0.143,3.114,0.00185,0.045,TRUE,1.711250072335e-06,TRUE,0.01924551,0.04819816,TRUE,0.000185194828332549,TRUE
rs130072,6,31220463,0.1007,10361,-0.795,-5.001,5.81e-07,rs12529697,6,31233386,0.07121,10331,-0.533,-2.863,0.0042,10334,-0.834,-6.597,4.41e-11,301,-0.059,0.185,-0.317,0.751,0.059,FALSE,0.282000500033119,FALSE,0.5087325,0.05927497,FALSE,0.12940437830056,FALSE
rs4386816,6,31355114,0.1445,10360,-0.737,-5.401,6.77e-08,rs6457401,6,31442831,0.2286,10361,-0.579,-5.052,4.46e-07,10360,-0.568,-6.568,5.35e-11,301,0.034,0.121,0.279,0.78,0.056,FALSE,0.30420000004173,FALSE,0.5992376,0.06057206,FALSE,0.179542850658939,FALSE
rs1466947,5,168231236,0.1111,10360,-0.817,-5.296,1.21e-07,rs17070997,5,168576133,0.07074,10316,-0.736,-3.863,0.000113,10316,-0.776,-6.503,8.21e-11,111,-0.031,0.18,-0.174,0.862,0.047,FALSE,0.37152200007077,FALSE,0.5721293,0.0420878,FALSE,0.163665968006217,FALSE
rs42046,7,92090139,0.2842,10359,0.571,5.316,1.08e-07,rs17164894,7,92437967,0.06558,10360,0.836,4.309,1.65e-05,10359,0.63,6.499,8.44e-11,132,0.465,0.13,3.584,0.000341,0.046,TRUE,5.81405287804036e-08,TRUE,0.02977212,0.04743824,TRUE,0.000443189567159967,TRUE
rs11767704,7,92094311,0.2842,10359,0.571,5.316,1.08e-07,rs17164894,7,92437967,0.06558,10360,0.836,4.309,1.65e-05,10359,0.63,6.499,8.44e-11,129,0.463,0.13,3.572,0.000356,0.048,TRUE,6.33680300464036e-08,TRUE,0.02893812,0.04778357,TRUE,0.000418707397009577,TRUE
rs11771637,7,92098097,0.2842,10359,0.571,5.316,1.08e-07,rs17164894,7,92437967,0.06558,10360,0.836,4.309,1.65e-05,10359,0.63,6.499,8.44e-11,127,0.454,0.13,3.501,0.000467,0.046,TRUE,1.09044539414804e-07,TRUE,0.04341272,0.04856654,TRUE,0.000942332132563234,TRUE
rs2282979,7,92102929,0.2841,10360,0.569,5.303,1.16e-07,rs17164894,7,92437967,0.06558,10360,0.836,4.309,1.65e-05,10360,0.629,6.486,9.2e-11,123,0.433,0.129,3.351,0.00081,0.047,TRUE,3.28050074520004e-07,TRUE,0.04189855,0.04192801,TRUE,0.000877744249905916,TRUE
rs514779,9,1588693,0.02727,10321,-1.277,-4.329,1.51e-05,rs10962274,9,1607716,0.07952,10356,-0.658,-3.723,0.000198,10318,-0.98,-6.484,9.34e-11,301,-0.481,0.216,-2.23,0.0258,0.045,TRUE,0.00033282000240972,TRUE,0.05462227,0.05071428,FALSE,0.00149179619507817,TRUE
rs1853417,9,1588840,0.02727,10321,-1.277,-4.329,1.51e-05,rs10962274,9,1607716,0.07952,10356,-0.658,-3.723,0.000198,10318,-0.98,-6.484,9.34e-11,301,-0.481,0.216,-2.229,0.0258,0.047,TRUE,0.00033282000240972,TRUE,0.0537209,0.05159815,FALSE,0.00144296755342253,TRUE
rs9821337,3,142578875,0.384,10324,0.513,5.234,1.69e-07,rs6762826,3,142628005,0.09131,10359,0.367,2.203,0.0277,10323,0.623,6.48,9.59e-11,148,0.722,0.127,5.668,1.49e-08,0.05,TRUE,1.12438508405e-16,TRUE,7.77e-06,0.04530045,TRUE,3.01871951475984e-11,TRUE
rs11765954,7,92118631,0.2851,10360,0.562,5.242,1.62e-07,rs17164894,7,92437967,0.06558,10360,0.836,4.309,1.65e-05,10360,0.623,6.433,1.3e-10,120,0.461,0.129,3.568,0.000362,0.05,TRUE,6.55220470600085e-08,TRUE,0.02711893,0.04705498,TRUE,0.000367718185697911,TRUE
rs6948097,7,92119889,0.2851,10360,0.562,5.242,1.62e-07,rs17164894,7,92437967,0.06558,10360,0.836,4.309,1.65e-05,10360,0.623,6.433,1.3e-10,119,0.467,0.129,3.612,0.000305,0.049,TRUE,4.65125396500085e-08,TRUE,0.02711893,0.04705498,TRUE,0.000367718185697911,TRUE
rs6954221,7,92121198,0.2851,10360,0.562,5.242,1.62e-07,rs17164894,7,92437967,0.06558,10360,0.836,4.309,1.65e-05,10360,0.623,6.433,1.3e-10,118,0.467,0.129,3.612,0.000305,0.049,TRUE,4.65125396500085e-08,TRUE,0.02711893,0.04705498,TRUE,0.000367718185697911,TRUE
rs7804722,7,92126042,0.2849,10358,0.561,5.236,1.67e-07,rs17164894,7,92437967,0.06558,10360,0.836,4.309,1.65e-05,10358,0.622,6.425,1.38e-10,115,0.479,0.129,3.703,0.000215,0.05,TRUE,2.31125296700095e-08,TRUE,0.02499594,0.04270439,TRUE,0.00031239851169124,TRUE
rs1759627,6,34305083,0.1704,10268,0.598,4.677,2.94e-06,rs2744964,6,34699298,0.1556,10360,0.709,5.366,8.24e-08,10271,0.602,6.413,1.49e-10,80,0.239,0.126,1.899,0.0576,0.053,FALSE,0.0016588800085824,TRUE,0.389042,0.05857029,FALSE,0.0756768389399673,FALSE
rs726838,3,142555356,0.3511,10360,0.52,5.168,2.41e-07,rs6762826,3,142628005,0.09131,10359,0.367,2.203,0.0277,10359,0.618,6.405,1.57e-10,157,0.454,0.128,3.532,0.000414,0.051,TRUE,8.56980649980123e-08,TRUE,0.003590634,0.04706529,TRUE,6.44632682470755e-06,TRUE
rs13095453,3,142557652,0.3511,10360,0.52,5.168,2.41e-07,rs6762826,3,142628005,0.09131,10359,0.367,2.203,0.0277,10359,0.618,6.405,1.57e-10,156,0.458,0.128,3.563,0.000368,0.053,TRUE,6.77120577760123e-08,TRUE,0.003083701,0.04775695,TRUE,4.75460641284157e-06,TRUE
